
{
  "list":
    {
      "lastUpdate": "22/10/22",
      "diaspora":
        {
          "population": "731.472",
          "activeUsers": "29.532",
          "podsNum": "152"
        },
      "friendica":
        {
          "population": "19.180",
          "activeUsers": "6.700",
          "podsNum": "354"
        },
      "hubzilla":
        {
          "population": "4.954",
          "activeUsers": "2.205",
          "podsNum": "107"
        },
      "mastodon":
        {
          "population": "4.570.850",
          "activeUsers": "1.286.797",
          "podsNum": "4.044"
        },
      "gnusocial":
        {
          "population": "2.744",
          "activeUsers": "756",
          "podsNum": "19"
        },
      "pleroma":
        {
          "population": "101.701",
          "activeUsers": "26.711",
          "podsNum": "982"
        },
      "misskey":
        {
          "population": "10.061",
          "activeUsers": "",
          "podsNum": "455"
        },
      "peertube":
        {
          "population": "341.465",
          "activeUsers": "113.481",
          "podsNum": "1.273"
        },
      "pixelfed":
        {
          "population": "107.491",
          "activeUsers": "36.813",
          "podsNum": "310"
        },
      "funkwhale":
        {
          "population": "7.521",
          "activeUsers": "1.688",
          "podsNum": "132"
        },
      "writefreely":
        {
          "population": "61.926",
          "activeUsers": "7.662",
          "podsNum": "466"
        },
      "plume":
        {
          "population": "24.522",
          "activeUsers": "",
          "podsNum": "61"
        },
      "mobilizon":
        {
          "population": "13.943",
          "activeUsers": "",
          "podsNum": "121"
        },
      "lemmy":
        {
          "population": "54.649",
          "activeUsers": "6.580",
          "podsNum": "89"
        },
        "gotosocial":
        {
          "population": "",
          "activeUsers": "",
          "podsNum": "44"
        },
        "owncast":
        {
          "population": "108",
          "activeUsers": "108",
          "podsNum": "126"
        },
        "bookwyrm":
        {
          "population": "4.701",
          "activeUsers": "2.281",
          "podsNum": "29"
        },
      "fediverse":
        {
          "population": "6.057.288",
          "activeUsers": "1.521.314",
          "podsNum": "8.764"
        }
    }
}
